/home/cdelcacho/keras-retinanet/paradigma/images/12.jpg,,,,,
/home/cdelcacho/keras-retinanet/paradigma/images/15.jpg,,,,,
/home/cdelcacho/keras-retinanet/paradigma/images/2.jpg,,,,,
/home/cdelcacho/keras-retinanet/paradigma/images/DSC_1484.jpg,984,22,1314,115,logo
/home/cdelcacho/keras-retinanet/paradigma/images/Newsletter-ok.jpg,328,44,628,130,logo
/home/cdelcacho/keras-retinanet/paradigma/images/Newsletter-ok.jpg,500,428,706,488,logo
/home/cdelcacho/keras-retinanet/paradigma/images/DSC_4774.jpg,311,502,377,526,logo
/home/cdelcacho/keras-retinanet/paradigma/images/DSC_4774.jpg,249,33,373,67,logo
/home/cdelcacho/keras-retinanet/paradigma/images/DSC_2468.jpg,798,564,1153,669,logo
/home/cdelcacho/keras-retinanet/paradigma/images/4.jpg,,,,,
/home/cdelcacho/keras-retinanet/paradigma/images/10.jpg,,,,,
/home/cdelcacho/keras-retinanet/paradigma/images/5.jpg,,,,,
/home/cdelcacho/keras-retinanet/paradigma/images/16.jpg,,,,,
/home/cdelcacho/keras-retinanet/paradigma/images/Cartas (1).jpg,749,446,814,639,logo
/home/cdelcacho/keras-retinanet/paradigma/images/DSC_9756.jpg,121,684,309,744,logo
/home/cdelcacho/keras-retinanet/paradigma/images/DSC_9756.jpg,469,698,655,766,logo
/home/cdelcacho/keras-retinanet/paradigma/images/DSC_9756.jpg,1029,738,1233,808,logo
/home/cdelcacho/keras-retinanet/paradigma/images/DSC_9756.jpg,1401,752,1621,828,logo
/home/cdelcacho/keras-retinanet/paradigma/images/DSC_9707.jpg,712,11,852,53,logo
/home/cdelcacho/keras-retinanet/paradigma/images/DSC_9707.jpg,1464,11,1622,55,logo
/home/cdelcacho/keras-retinanet/paradigma/images/DSC_9794.jpg,731,441,1651,792,logo
/home/cdelcacho/keras-retinanet/paradigma/images/DSC_4995.jpg,729,2098,975,2812,logo
/home/cdelcacho/keras-retinanet/paradigma/images/DSC_9837.jpg,1090,916,1769,1108,logo
/home/cdelcacho/keras-retinanet/paradigma/images/DSC_0346.jpg,121,182,1704,1103,logo
/home/cdelcacho/keras-retinanet/paradigma/images/DSC_8599.jpg,437,713,822,851,logo
/home/cdelcacho/keras-retinanet/paradigma/images/DSC_2731-2.jpg,1507,1,1639,47,logo
/home/cdelcacho/keras-retinanet/paradigma/images/11.jpg,,,,,
/home/cdelcacho/keras-retinanet/paradigma/images/Stand.jpg,2046,3482,2525,3653,logo
/home/cdelcacho/keras-retinanet/paradigma/images/DSC_9711.jpg,1291,122,1530,186,logo
/home/cdelcacho/keras-retinanet/paradigma/images/13.jpg,,,,,
/home/cdelcacho/keras-retinanet/paradigma/images/DSC04225.jpg,1016,217,1230,285,logo
/home/cdelcacho/keras-retinanet/paradigma/images/DSC_0100.jpg,93,303,214,674,logo
/home/cdelcacho/keras-retinanet/paradigma/images/DSC_0100.jpg,1335,461,1527,895,logo
/home/cdelcacho/keras-retinanet/paradigma/images/6.jpg,,,,,
/home/cdelcacho/keras-retinanet/paradigma/images/DSC_1583.jpg,2746,2532,3375,2789,logo
/home/cdelcacho/keras-retinanet/paradigma/images/DSC03770.jpg,535,258,774,330,logo
/home/cdelcacho/keras-retinanet/paradigma/images/DSC04161.jpg,377,976,860,1234,logo
/home/cdelcacho/keras-retinanet/paradigma/images/DSC_4009.jpg,1456,236,1798,357,logo
/home/cdelcacho/keras-retinanet/paradigma/images/10 techbrunchs (2).jpg,657,510,856,577,logo
/home/cdelcacho/keras-retinanet/paradigma/images/DSC_2685(1).jpg,1205,147,1398,224,logo
/home/cdelcacho/keras-retinanet/paradigma/images/1.jpg,,,,,
/home/cdelcacho/keras-retinanet/paradigma/images/DSC_8598.jpg,381,457,1422,751,logo
/home/cdelcacho/keras-retinanet/paradigma/images/DSC05962.jpg,1063,699,1251,757,logo
/home/cdelcacho/keras-retinanet/paradigma/images/DSC_4972.jpg,118,225,3803,2889,logo
/home/cdelcacho/keras-retinanet/paradigma/images/DSC_9998-2.jpg,897,381,1015,415,logo
/home/cdelcacho/keras-retinanet/paradigma/images/DSC_4859.jpg,591,325,851,550,logo
/home/cdelcacho/keras-retinanet/paradigma/images/9.jpg,,,,,
/home/cdelcacho/keras-retinanet/paradigma/images/DSC06126.jpg,281,537,449,592,logo
/home/cdelcacho/keras-retinanet/paradigma/images/DSC06126.jpg,981,439,1100,483,logo
/home/cdelcacho/keras-retinanet/paradigma/images/161124_paradigma_navidad_nubel_1420.jpg,1054,37,2092,231,logo
/home/cdelcacho/keras-retinanet/paradigma/images/14.jpg,,,,,
/home/cdelcacho/keras-retinanet/paradigma/images/7.jpg,,,,,
/home/cdelcacho/keras-retinanet/paradigma/images/DSC_1485.jpg,1295,119,1579,198,logo
